

Endpoints do website:

localhost:5555\                 -> Home
localhost:5555\quotes           -> Todas as frases
localhost:5555\quotes\random    ->

Para queries no banco:

localhost:5555/api/sessions/queryall                                -> Busca todas as sessões salvas no banco
localhost:5555/api/sessions/insert?session_id={id}&page={page}      -> Insere uma nova sessão no banco
localhost:5555/api/sessions/query?session_id={id}&page={page}       -> Busca um registro no banco 
                                                                    utilizando o operador OR para esses parametros.
                                                                    (Não é necessário passar os dois).


Sobre o desafio:

    1) O módulo quoteapi.py implementa essa função
    2) A view o quoteviews.py possui as quatro rotas especificadas
    3) O módulo cookiehandler.py utiliza cookies para identificar os usuários 
    4) O módulo databasehandler.py salva sessões no banco
    5) A view sessionapiview.py possui os endpoints para consulta no banco

